%YAML 1.1
%TAG !u! tag:unity3d.com,2011:
--- !u!1 &100000
GameObject:
  m_ObjectHideFlags: 0
  m_PrefabParentObject: {fileID: 0}
  m_PrefabInternal: {fileID: 100100000}
  serializedVersion: 4
  m_Component:
  - 4: {fileID: 400000}
  - 114: {fileID: 11400000}
  m_Layer: 0
  m_Name: Atlas1
  m_TagString: Untagged
  m_Icon: {fileID: 0}
  m_NavMeshLayer: 0
  m_StaticEditorFlags: 0
  m_IsActive: 1
--- !u!4 &400000
Transform:
  m_ObjectHideFlags: 1
  m_PrefabParentObject: {fileID: 0}
  m_PrefabInternal: {fileID: 100100000}
  m_GameObject: {fileID: 100000}
  m_LocalRotation: {x: 0, y: 0, z: 0, w: 1}
  m_LocalPosition: {x: 4.62550259, y: 13.9477606, z: .0149233341}
  m_LocalScale: {x: 1, y: 1, z: 1}
  m_Children: []
  m_Father: {fileID: 0}
--- !u!114 &11400000
MonoBehaviour:
  m_ObjectHideFlags: 1
  m_PrefabParentObject: {fileID: 0}
  m_PrefabInternal: {fileID: 100100000}
  m_GameObject: {fileID: 100000}
  m_Enabled: 1
  m_EditorHideFlags: 0
  m_Script: {fileID: 11500000, guid: 4771ee4e0b9a1764fbeb67f1424e9e6a, type: 3}
  m_Name: 
  m_EditorClassIdentifier: 
  ShapeList:
  - Id: Spade
    Image: {fileID: 2800000, guid: c0296c19e616f29479a7e6bd65ebc06e, type: 3}
    Min: {x: .62890625, y: .625976562}
    Max: {x: .745117188, y: .743164062}
  - Id: Heart
    Image: {fileID: 2800000, guid: c0296c19e616f29479a7e6bd65ebc06e, type: 3}
    Min: {x: .75390625, y: .44140625}
    Max: {x: .87109375, y: .55859375}
  - Id: Club
    Image: {fileID: 2800000, guid: c0296c19e616f29479a7e6bd65ebc06e, type: 3}
    Min: {x: .5, y: .625976562}
    Max: {x: .6171875, y: .743164062}
  - Id: Diamond
    Image: {fileID: 2800000, guid: c0296c19e616f29479a7e6bd65ebc06e, type: 3}
    Min: {x: .5, y: .754882812}
    Max: {x: .6171875, y: .872070312}
  - Id: H-Jack
    Image: {fileID: 2800000, guid: c0296c19e616f29479a7e6bd65ebc06e, type: 3}
    Min: {x: 0, y: 0}
    Max: {x: .244140625, y: .21484375}
  - Id: H-Queen
    Image: {fileID: 2800000, guid: c0296c19e616f29479a7e6bd65ebc06e, type: 3}
    Min: {x: .248046875, y: 0}
    Max: {x: .4921875, y: .21484375}
  - Id: H-King
    Image: {fileID: 2800000, guid: c0296c19e616f29479a7e6bd65ebc06e, type: 3}
    Min: {x: .49609375, y: 0}
    Max: {x: .740234375, y: .21484375}
  - Id: D-Jack
    Image: {fileID: 2800000, guid: c0296c19e616f29479a7e6bd65ebc06e, type: 3}
    Min: {x: .744140625, y: 0}
    Max: {x: .98828125, y: .21484375}
  - Id: D-Queen
    Image: {fileID: 2800000, guid: c0296c19e616f29479a7e6bd65ebc06e, type: 3}
    Min: {x: 0, y: .21875}
    Max: {x: .244140625, y: .43359375}
  - Id: D-King
    Image: {fileID: 2800000, guid: c0296c19e616f29479a7e6bd65ebc06e, type: 3}
    Min: {x: 0, y: .4375}
    Max: {x: .244140625, y: .65234375}
  - Id: S-Jack
    Image: {fileID: 2800000, guid: c0296c19e616f29479a7e6bd65ebc06e, type: 3}
    Min: {x: 0, y: .65625}
    Max: {x: .244140625, y: .87109375}
  - Id: S-Queen
    Image: {fileID: 2800000, guid: c0296c19e616f29479a7e6bd65ebc06e, type: 3}
    Min: {x: .248046875, y: .21875}
    Max: {x: .4921875, y: .43359375}
  - Id: S-King
    Image: {fileID: 2800000, guid: c0296c19e616f29479a7e6bd65ebc06e, type: 3}
    Min: {x: .49609375, y: .21875}
    Max: {x: .740234375, y: .43359375}
  - Id: C-Jack
    Image: {fileID: 2800000, guid: c0296c19e616f29479a7e6bd65ebc06e, type: 3}
    Min: {x: .744140625, y: .21875}
    Max: {x: .98828125, y: .43359375}
  - Id: C-Queen
    Image: {fileID: 2800000, guid: c0296c19e616f29479a7e6bd65ebc06e, type: 3}
    Min: {x: .248046875, y: .4375}
    Max: {x: .4921875, y: .65234375}
  - Id: C-King
    Image: {fileID: 2800000, guid: c0296c19e616f29479a7e6bd65ebc06e, type: 3}
    Min: {x: .248046875, y: .65625}
    Max: {x: .4921875, y: .87109375}
  - Id: Back
    Image: {fileID: 2800000, guid: c0296c19e616f29479a7e6bd65ebc06e, type: 3}
    Min: {x: .498046875, y: .439453125}
    Max: {x: .744140625, y: .616210938}
  - Id: 2
    Image: {fileID: 2800000, guid: c0296c19e616f29479a7e6bd65ebc06e, type: 3}
    Min: {x: .0029296875, y: .877929688}
    Max: {x: .0595703125, y: .934570312}
  - Id: 3
    Image: {fileID: 2800000, guid: c0296c19e616f29479a7e6bd65ebc06e, type: 3}
    Min: {x: .0693359375, y: .877929688}
    Max: {x: .125976562, y: .934570312}
  - Id: 4
    Image: {fileID: 2800000, guid: c0296c19e616f29479a7e6bd65ebc06e, type: 3}
    Min: {x: .135742188, y: .877929688}
    Max: {x: .192382812, y: .934570312}
  - Id: 5
    Image: {fileID: 2800000, guid: c0296c19e616f29479a7e6bd65ebc06e, type: 3}
    Min: {x: .250976562, y: .877929688}
    Max: {x: .307617188, y: .934570312}
  - Id: 6
    Image: {fileID: 2800000, guid: c0296c19e616f29479a7e6bd65ebc06e, type: 3}
    Min: {x: .317382812, y: .877929688}
    Max: {x: .374023438, y: .934570312}
  - Id: 7
    Image: {fileID: 2800000, guid: c0296c19e616f29479a7e6bd65ebc06e, type: 3}
    Min: {x: .383789062, y: .877929688}
    Max: {x: .440429688, y: .934570312}
  - Id: 8
    Image: {fileID: 2800000, guid: c0296c19e616f29479a7e6bd65ebc06e, type: 3}
    Min: {x: .881835938, y: .440429688}
    Max: {x: .938476562, y: .497070312}
  - Id: 9
    Image: {fileID: 2800000, guid: c0296c19e616f29479a7e6bd65ebc06e, type: 3}
    Min: {x: .881835938, y: .506835938}
    Max: {x: .938476562, y: .563476562}
  - Id: 10
    Image: {fileID: 2800000, guid: c0296c19e616f29479a7e6bd65ebc06e, type: 3}
    Min: {x: .499023438, y: .8828125}
    Max: {x: .555664062, y: .939453125}
  - Id: J
    Image: {fileID: 2800000, guid: c0296c19e616f29479a7e6bd65ebc06e, type: 3}
    Min: {x: .755859375, y: .625}
    Max: {x: .8125, y: .681640625}
  - Id: Q
    Image: {fileID: 2800000, guid: c0296c19e616f29479a7e6bd65ebc06e, type: 3}
    Min: {x: .822265625, y: .625}
    Max: {x: .87890625, y: .681640625}
  - Id: K
    Image: {fileID: 2800000, guid: c0296c19e616f29479a7e6bd65ebc06e, type: 3}
    Min: {x: .888671875, y: .625}
    Max: {x: .9453125, y: .681640625}
  - Id: A
    Image: {fileID: 2800000, guid: c0296c19e616f29479a7e6bd65ebc06e, type: 3}
    Min: {x: .627929688, y: .75390625}
    Max: {x: .684570312, y: .810546875}
  - Id: Paper
    Image: {fileID: 2800000, guid: c0296c19e616f29479a7e6bd65ebc06e, type: 3}
    Min: {x: .6328125, y: .825195312}
    Max: {x: .6796875, y: .872070312}
--- !u!1001 &100100000
Prefab:
  m_ObjectHideFlags: 1
  serializedVersion: 2
  m_Modification:
    m_TransformParent: {fileID: 0}
    m_Modifications: []
    m_RemovedComponents: []
  m_ParentPrefab: {fileID: 0}
  m_RootGameObject: {fileID: 100000}
  m_IsPrefabParent: 1
  m_IsExploded: 1
